{
    "KPlugin": {
        "Description": "Plugin that allows Python scripting for Kate",
        "Description[bg]": "Приставка за Kate, която предоставя възможност за писане на скриптове на Python",
        "Description[ca@valencia]": "Connector per a Kate que permet crear scripts en Python",
        "Description[ca]": "Connector per al Kate que permet crear scripts en Python",
        "Description[es]": "Complemento que permite scripts en Python para Kate",
        "Description[eu]": "Kate-n, Python gidoiak egiteko aukera ematen duen plugina",
        "Description[fr]": "Module externe permettant des scripts en Python pour Kate",
        "Description[nl]": "Plug-in die scripts maken voor Kate in Python biedt",
        "Description[pt]": "'Plugin' que permite programar para o Kate em Python",
        "Description[sl]": "Vtičnik, ki dovoljuje Python skript za Kate",
        "Description[tr]": "Kate için Python betik yazımını etkinleştiren eklenti",
        "Description[uk]": "Додаток, який уможливлює сценарії Python для Kate",
        "Description[vi]": "Phần cài cắm cho phép chạy kịch bản Python cho Kate",
        "Description[x-test]": "xxPlugin that allows Python scripting for Katexx",
        "Name": "Python Scripting",
        "Name[bg]": "Python Scripting",
        "Name[ca@valencia]": "Crear scripts en Python",
        "Name[ca]": "Crear scripts en Python",
        "Name[es]": "Scripts en Python",
        "Name[eu]": "Python gidoiak",
        "Name[fr]": "Langage de scripts sous Python",
        "Name[nl]": "Scripts maken in Python",
        "Name[pt]": "Programação em Python",
        "Name[sl]": "Python skript",
        "Name[tr]": "Python Betik Yazımı",
        "Name[uk]": "Сценарії на Python",
        "Name[vi]": "Kịch bản Python",
        "Name[x-test]": "xxPython Scriptingxx",
        "ServiceTypes": [
            "KTextEditor/Plugin"
        ]
    }
}
